\relax 
\providecommand\hyper@newdestlabel[2]{}
\catcode `"\active 
\providecommand\HyperFirstAtBeginDocument{\AtBeginDocument}
\HyperFirstAtBeginDocument{\ifx\hyper@anchor\@undefined
\global\let\oldcontentsline\contentsline
\gdef\contentsline#1#2#3#4{\oldcontentsline{#1}{#2}{#3}}
\global\let\oldnewlabel\newlabel
\gdef\newlabel#1#2{\newlabelxx{#1}#2}
\gdef\newlabelxx#1#2#3#4#5#6{\oldnewlabel{#1}{{#2}{#3}}}
\AtEndDocument{\ifx\hyper@anchor\@undefined
\let\contentsline\oldcontentsline
\let\newlabel\oldnewlabel
\fi}
\fi}
\global\let\hyper@last\relax 
\gdef\HyperFirstAtBeginDocument#1{#1}
\providecommand\HyField@AuxAddToFields[1]{}
\providecommand\HyField@AuxAddToCoFields[2]{}
\bibstyle{ugost2008ls}
\@input{titlepage.aux}
\select@language{russian}
\@writefile{toc}{\select@language{russian}}
\@writefile{lof}{\select@language{russian}}
\@writefile{lot}{\select@language{russian}}
\@input{ToC.aux}
\@writefile{toc}{\contentsline {section}{\numberline {1}\IeC {\CYRC }\IeC {\cyre }\IeC {\cyrl }\IeC {\cyrsftsn } \IeC {\cyrr }\IeC {\cyra }\IeC {\cyrb }\IeC {\cyro }\IeC {\cyrt }\IeC {\cyrery }}{2}{section.1}}
\@writefile{toc}{\contentsline {section}{\numberline {2}\IeC {\CYRP }\IeC {\cyrr }\IeC {\cyro }\IeC {\cyrg }\IeC {\cyrr }\IeC {\cyra }\IeC {\cyrm }\IeC {\cyrm }\IeC {\cyra } \IeC {\cyrr }\IeC {\cyra }\IeC {\cyrb }\IeC {\cyro }\IeC {\cyrt }\IeC {\cyrery }}{2}{section.2}}
\@writefile{toc}{\contentsline {section}{\numberline {3}\IeC {\CYRT }\IeC {\cyre }\IeC {\cyro }\IeC {\cyrr }\IeC {\cyre }\IeC {\cyrt }\IeC {\cyri }\IeC {\cyrch }\IeC {\cyre }\IeC {\cyrs }\IeC {\cyrk }\IeC {\cyra }\IeC {\cyrya } \IeC {\cyri }\IeC {\cyrn }\IeC {\cyrf }\IeC {\cyro }\IeC {\cyrr }\IeC {\cyrm }\IeC {\cyra }\IeC {\cyrc }\IeC {\cyri }\IeC {\cyrya }}{2}{section.3}}
\@writefile{toc}{\contentsline {subsection}{\numberline {3.1}\IeC {\CYRF }\IeC {\cyra }\IeC {\cyrz }\IeC {\cyro }\IeC {\cyrv }\IeC {\cyra }\IeC {\cyrya } \IeC {\cyrm }\IeC {\cyro }\IeC {\cyrd }\IeC {\cyru }\IeC {\cyrl }\IeC {\cyrya }\IeC {\cyrc }\IeC {\cyri }\IeC {\cyrya }}{2}{subsection.3.1}}
\@writefile{toc}{\contentsline {subsection}{\numberline {3.2}\IeC {\CYRU }\IeC {\cyrg }\IeC {\cyrl }\IeC {\cyro }\IeC {\cyrv }\IeC {\cyra }\IeC {\cyrya } \IeC {\cyrm }\IeC {\cyro }\IeC {\cyrd }\IeC {\cyru }\IeC {\cyrl }\IeC {\cyrya }\IeC {\cyrc }\IeC {\cyri }\IeC {\cyrya }}{2}{subsection.3.2}}
\@writefile{toc}{\contentsline {section}{\numberline {4}\IeC {\CYRH }\IeC {\cyro }\IeC {\cyrd } \IeC {\cyrv }\IeC {\cyrery }\IeC {\cyrp }\IeC {\cyro }\IeC {\cyrl }\IeC {\cyrn }\IeC {\cyre }\IeC {\cyrn }\IeC {\cyri }\IeC {\cyrya } \IeC {\cyrr }\IeC {\cyra }\IeC {\cyrb }\IeC {\cyro }\IeC {\cyrt }\IeC {\cyrery }}{2}{section.4}}
\newlabel{code:lab5}{{1}{2}{Код программы исследования}{lstlisting.1}{}}
\@writefile{lol}{\contentsline {lstlisting}{\numberline {1}\IeC {\CYRK }\IeC {\cyro }\IeC {\cyrd } \IeC {\cyrp }\IeC {\cyrr }\IeC {\cyro }\IeC {\cyrg }\IeC {\cyrr }\IeC {\cyra }\IeC {\cyrm }\IeC {\cyrm }\IeC {\cyrery } \IeC {\cyri }\IeC {\cyrs }\IeC {\cyrs }\IeC {\cyrl }\IeC {\cyre }\IeC {\cyrd }\IeC {\cyro }\IeC {\cyrv }\IeC {\cyra }\IeC {\cyrn }\IeC {\cyri }\IeC {\cyrya }}{2}{lstlisting.1}}
\@writefile{lof}{\contentsline {figure}{\numberline {4.1}{\ignorespaces \IeC {\cyro }\IeC {\cyrd }\IeC {\cyrn }\IeC {\cyro }\IeC {\cyrt }\IeC {\cyro }\IeC {\cyrn }\IeC {\cyra }\IeC {\cyrl }\IeC {\cyrsftsn }\IeC {\cyrn }\IeC {\cyrery }\IeC {\cyrishrt } \IeC {\cyrs }\IeC {\cyri }\IeC {\cyrg }\IeC {\cyrn }\IeC {\cyra }\IeC {\cyrl }\relax }}{4}{figure.caption.1}}
\providecommand*\caption@xref[2]{\@setref\relax\@undefined{#1}}
\newlabel{pic:pic_1}{{4.1}{4}{однотональный сигнал\relax }{figure.caption.1}{}}
\@writefile{lof}{\contentsline {figure}{\numberline {4.2}{\ignorespaces PM-\IeC {\cyrs }\IeC {\cyri }\IeC {\cyrg }\IeC {\cyrn }\IeC {\cyra }\IeC {\cyrl }\relax }}{5}{figure.caption.2}}
\newlabel{pic:pic_1}{{4.2}{5}{PM-сигнал\relax }{figure.caption.2}{}}
\@writefile{lof}{\contentsline {figure}{\numberline {4.3}{\ignorespaces \IeC {\CYRS }\IeC {\cyrp }\IeC {\cyre }\IeC {\cyrk }\IeC {\cyrt }\IeC {\cyrr } PM-\IeC {\cyrs }\IeC {\cyri }\IeC {\cyrg }\IeC {\cyrn }\IeC {\cyra }\IeC {\cyrl }\IeC {\cyra }\relax }}{5}{figure.caption.3}}
\newlabel{pic:pic_1}{{4.3}{5}{Спектр PM-сигнала\relax }{figure.caption.3}{}}
\@writefile{lof}{\contentsline {figure}{\numberline {4.4}{\ignorespaces \IeC {\CYRD }\IeC {\cyre }\IeC {\cyrm }\IeC {\cyro }\IeC {\cyrd }\IeC {\cyru }\IeC {\cyrl }\IeC {\cyri }\IeC {\cyrr }\IeC {\cyro }\IeC {\cyrv }\IeC {\cyra }\IeC {\cyrn }\IeC {\cyrn }\IeC {\cyrery }\IeC {\cyrishrt } PM-\IeC {\cyrs }\IeC {\cyri }\IeC {\cyrg }\IeC {\cyrn }\IeC {\cyra }\IeC {\cyrl }\relax }}{6}{figure.caption.4}}
\newlabel{pic:pic_1}{{4.4}{6}{Демодулированный PM-сигнал\relax }{figure.caption.4}{}}
\@writefile{lof}{\contentsline {figure}{\numberline {4.5}{\ignorespaces FM-\IeC {\cyrs }\IeC {\cyri }\IeC {\cyrg }\IeC {\cyrn }\IeC {\cyra }\IeC {\cyrl }\relax }}{7}{figure.caption.5}}
\newlabel{pic:pic_1}{{4.5}{7}{FM-сигнал\relax }{figure.caption.5}{}}
\@writefile{lof}{\contentsline {figure}{\numberline {4.6}{\ignorespaces \IeC {\CYRS }\IeC {\cyrp }\IeC {\cyre }\IeC {\cyrk }\IeC {\cyrt }\IeC {\cyrr } FM-\IeC {\cyrs }\IeC {\cyri }\IeC {\cyrg }\IeC {\cyrn }\IeC {\cyra }\IeC {\cyrl }\IeC {\cyra }\relax }}{7}{figure.caption.6}}
\newlabel{pic:pic_1}{{4.6}{7}{Спектр FM-сигнала\relax }{figure.caption.6}{}}
\@writefile{lof}{\contentsline {figure}{\numberline {4.7}{\ignorespaces \IeC {\CYRD }\IeC {\cyre }\IeC {\cyrm }\IeC {\cyro }\IeC {\cyrd }\IeC {\cyru }\IeC {\cyrl }\IeC {\cyri }\IeC {\cyrr }\IeC {\cyro }\IeC {\cyrv }\IeC {\cyra }\IeC {\cyrn }\IeC {\cyrn }\IeC {\cyrery }\IeC {\cyrishrt } FM-\IeC {\cyrs }\IeC {\cyri }\IeC {\cyrg }\IeC {\cyrn }\IeC {\cyra }\IeC {\cyrl }\relax }}{8}{figure.caption.7}}
\newlabel{pic:pic_1}{{4.7}{8}{Демодулированный FM-сигнал\relax }{figure.caption.7}{}}
\@writefile{toc}{\contentsline {section}{\numberline {5}\IeC {\CYRV }\IeC {\cyrery }\IeC {\cyrv }\IeC {\cyro }\IeC {\cyrd }\IeC {\cyrery }}{8}{section.5}}
\ttl@finishall
